[
  {
    "position": "Rest",
    "hand": "both",
    "angle": 0.0,
    "time": 1.6,
    "prep": 0.4,
    "mirror": false
  },
  {
    "position": "Move",
    "hand": "right",
    "angle": 30.0,
    "time": 1.7,
    "prep": 0.0,
    "mirror": false
  },
  {
    "position": "Rest",
    "hand": "both",
    "angle": 0.0,
    "time": 1.4,
    "prep": 0.4,
    "mirror": false
  },
  {
    "position": "Move",
    "hand": "both",
    "angle": 35.0,
    "time": 1.8,
    "prep": 0.0,
    "mirror": false
  },
  {
    "position": "Rest",
    "hand": "both",
    "angle": 0.0,
    "time": 1.2,
    "prep": 0.4,
    "mirror": false
  },
  {
    "position": "Move",
    "hand": "right",
    "angle": 30.0,
    "time": 1.4,
    "prep": 0.0,
    "mirror": false
  },
  {
    "position": "Rest",
    "hand": "both",
    "angle": 0.0,
    "time": 2.0,
    "prep": 0.5,
    "mirror": false
  },
  {
    "position": "Move",
    "hand": "both",
    "angle": 35.0,
    "time": 1.3,
    "prep": 0.0,
    "mirror": false
  },
  {
    "position": "Rest",
    "hand": "both",
    "angle": 0.0,
    "time": 1.4,
    "prep": 0.3,
    "mirror": false
  },
  {
    "position": "Move",
    "hand": "left",
    "angle": 20.0,
    "time": 1.6,
    "prep": 0.0,
    "mirror": false
  },
  {
    "position": "Rest",
    "hand": "both",
    "angle": 0.0,
    "time": 1.3,
    "prep": 0.4,
    "mirror": false
  },
  {
    "position": "Move",
    "hand": "right",
    "angle": 30.0,
    "time": 1.3,
    "prep": 0.0,
    "mirror": false
  },
  {
    "position": "Rest",
    "hand": "both",
    "angle": 0.0,
    "time": 1.6,
    "prep": 0.5,
    "mirror": false
  },
  {
    "position": "Move",
    "hand": "both",
    "angle": 40.0,
    "time": 1.3,
    "prep": 0.0,
    "mirror": false
  },
  {
    "position": "Rest",
    "hand": "both",
    "angle": 0.0,
    "time": 2.0,
    "prep": 0.4,
    "mirror": false
  },
  {
    "position": "Move",
    "hand": "left",
    "angle": 25.0,
    "time": 1.6,
    "prep": 0.0,
    "mirror": false
  },
  {
    "position": "Rest",
    "hand": "both",
    "angle": 0.0,
    "time": 1.8,
    "prep": 0.4,
    "mirror": false
  },
  {
    "position": "Move",
    "hand": "right",
    "angle": 30.0,
    "time": 1.6,
    "prep": 0.0,
    "mirror": false
  },
  {
    "position": "Rest",
    "hand": "both",
    "angle": 0.0,
    "time": 1.7,
    "prep": 0.4,
    "mirror": false
  },
  {
    "position": "Move",
    "hand": "right",
    "angle": 35.0,
    "time": 1.0,
    "prep": 0.0,
    "mirror": false
  },
  {
    "position": "Rest",
    "hand": "both",
    "angle": 0.0,
    "time": 1.2,
    "prep": 0.4,
    "mirror": false
  },
  {
    "position": "Move",
    "hand": "left",
    "angle": 25.0,
    "time": 1.2,
    "prep": 0.0,
    "mirror": false
  },
  {
    "position": "Rest",
    "hand": "both",
    "angle": 0.0,
    "time": 1.3,
    "prep": 0.4,
    "mirror": false
  },
  {
    "position": "Move",
    "hand": "left",
    "angle": 25.0,
    "time": 1.3,
    "prep": 0.0,
    "mirror": false
  },
  {
    "position": "Rest",
    "hand": "both",
    "angle": 0.0,
    "time": 1.1,
    "prep": 0.4,
    "mirror": false
  },
  {
    "position": "Move",
    "hand": "right",
    "angle": 30.0,
    "time": 1.6,
    "prep": 0.0,
    "mirror": false
  },
  {
    "position": "Rest",
    "hand": "both",
    "angle": 0.0,
    "time": 1.0,
    "prep": 0.4,
    "mirror": false
  },
  {
    "position": "Move",
    "hand": "left",
    "angle": 25.0,
    "time": 1.2,
    "prep": 0.0,
    "mirror": false
  },
  {
    "position": "Rest",
    "hand": "both",
    "angle": 0.0,
    "time": 1.0,
    "prep": 0.5,
    "mirror": false
  },
  {
    "position": "Move",
    "hand": "both",
    "angle": 40.0,
    "time": 1.7,
    "prep": 0.0,
    "mirror": false
  },
  {
    "position": "Rest",
    "hand": "both",
    "angle": 0.0,
    "time": 1.3,
    "prep": 0.4,
    "mirror": false
  },
  {
    "position": "Move",
    "hand": "right",
    "angle": 30.0,
    "time": 1.2,
    "prep": 0.0,
    "mirror": false
  },
  {
    "position": "Rest",
    "hand": "both",
    "angle": 0.0,
    "time": 1.6,
    "prep": 0.5,
    "mirror": false
  },
  {
    "position": "Move",
    "hand": "both",
    "angle": 40.0,
    "time": 1.3,
    "prep": 0.0,
    "mirror": false
  },
  {
    "position": "Rest",
    "hand": "both",
    "angle": 0.0,
    "time": 2.0,
    "prep": 0.4,
    "mirror": false
  },
  {
    "position": "Move",
    "hand": "right",
    "angle": 30.0,
    "time": 1.2,
    "prep": 0.0,
    "mirror": false
  },
  {
    "position": "Rest",
    "hand": "both",
    "angle": 0.0,
    "time": 1.8,
    "prep": 0.4,
    "mirror": false
  },
  {
    "position": "Move",
    "hand": "both",
    "angle": 35.0,
    "time": 1.6,
    "prep": 0.0,
    "mirror": false
  },
  {
    "position": "Rest",
    "hand": "both",
    "angle": 0.0,
    "time": 1.3,
    "prep": 0.3,
    "mirror": false
  },
  {
    "position": "Move",
    "hand": "left",
    "angle": 20.0,
    "time": 1.5,
    "prep": 0.0,
    "mirror": false
  },
  {
    "position": "Rest",
    "hand": "both",
    "angle": 0.0,
    "time": 1.8,
    "prep": 0.3,
    "mirror": false
  },
  {
    "position": "Move",
    "hand": "left",
    "angle": 20.0,
    "time": 1.2,
    "prep": 0.0,
    "mirror": false
  },
  {
    "position": "Rest",
    "hand": "both",
    "angle": 0.0,
    "time": 1.7,
    "prep": 0.3,
    "mirror": false
  },
  {
    "position": "Move",
    "hand": "left",
    "angle": 20.0,
    "time": 1.2,
    "prep": 0.0,
    "mirror": false
  },
  {
    "position": "Rest",
    "hand": "both",
    "angle": 0.0,
    "time": 1.1,
    "prep": 0.4,
    "mirror": false
  },
  {
    "position": "Move",
    "hand": "left",
    "angle": 25.0,
    "time": 1.2,
    "prep": 0.0,
    "mirror": false
  },
  {
    "position": "Rest",
    "hand": "both",
    "angle": 0.0,
    "time": 1.9,
    "prep": 0.4,
    "mirror": false
  },
  {
    "position": "Move",
    "hand": "right",
    "angle": 25.0,
    "time": 1.2,
    "prep": 0.0,
    "mirror": false
  },
  {
    "position": "Rest",
    "hand": "both",
    "angle": 0.0,
    "time": 2.0,
    "prep": 0.3,
    "mirror": false
  },
  {
    "position": "Move",
    "hand": "left",
    "angle": 20.0,
    "time": 1.3,
    "prep": 0.0,
    "mirror": false
  },
  {
    "position": "Rest",
    "hand": "both",
    "angle": 0.0,
    "time": 1.1,
    "prep": 0.4,
    "mirror": false
  },
  {
    "position": "Move",
    "hand": "right",
    "angle": 35.0,
    "time": 1.9,
    "prep": 0.0,
    "mirror": false
  },
  {
    "position": "Rest",
    "hand": "both",
    "angle": 0.0,
    "time": 1.4,
    "prep": 0.3,
    "mirror": false
  },
  {
    "position": "Move",
    "hand": "left",
    "angle": 20.0,
    "time": 1.8,
    "prep": 0.0,
    "mirror": false
  },
  {
    "position": "Rest",
    "hand": "both",
    "angle": 0.0,
    "time": 1.1,
    "prep": 0.3,
    "mirror": false
  },
  {
    "position": "Move",
    "hand": "left",
    "angle": 25.0,
    "time": 1.4,
    "prep": 0.0,
    "mirror": false
  },
  {
    "position": "Rest",
    "hand": "both",
    "angle": 0.0,
    "time": 1.4,
    "prep": 0.3,
    "mirror": false
  },
  {
    "position": "Move",
    "hand": "left",
    "angle": 20.0,
    "time": 1.1,
    "prep": 0.0,
    "mirror": false
  },
  {
    "position": "Rest",
    "hand": "both",
    "angle": 0.0,
    "time": 1.6,
    "prep": 0.4,
    "mirror": false
  },
  {
    "position": "Move",
    "hand": "both",
    "angle": 35.0,
    "time": 1.5,
    "prep": 0.0,
    "mirror": false
  },
  {
    "position": "Rest",
    "hand": "both",
    "angle": 0.0,
    "time": 1.4,
    "prep": 0.4,
    "mirror": false
  },
  {
    "position": "Move",
    "hand": "left",
    "angle": 25.0,
    "time": 1.7,
    "prep": 0.0,
    "mirror": false
  },
  {
    "position": "Rest",
    "hand": "both",
    "angle": 0.0,
    "time": 1.3,
    "prep": 0.3,
    "mirror": false
  },
  {
    "position": "Move",
    "hand": "left",
    "angle": 20.0,
    "time": 1.7,
    "prep": 0.0,
    "mirror": false
  },
  {
    "position": "Rest",
    "hand": "both",
    "angle": 0.0,
    "time": 1.3,
    "prep": 0.4,
    "mirror": false
  },
  {
    "position": "Move",
    "hand": "right",
    "angle": 30.0,
    "time": 1.1,
    "prep": 0.0,
    "mirror": false
  },
  {
    "position": "Rest",
    "hand": "both",
    "angle": 0.0,
    "time": 1.7,
    "prep": 0.4,
    "mirror": false
  },
  {
    "position": "Move",
    "hand": "left",
    "angle": 25.0,
    "time": 1.3,
    "prep": 0.0,
    "mirror": false
  },
  {
    "position": "Rest",
    "hand": "both",
    "angle": 0.0,
    "time": 1.3,
    "prep": 0.5,
    "mirror": false
  },
  {
    "position": "Move",
    "hand": "both",
    "angle": 40.0,
    "time": 1.8,
    "prep": 0.0,
    "mirror": false
  },
  {
    "position": "Rest",
    "hand": "both",
    "angle": 0.0,
    "time": 1.7,
    "prep": 0.3,
    "mirror": false
  },
  {
    "position": "Move",
    "hand": "left",
    "angle": 20.0,
    "time": 1.2,
    "prep": 0.0,
    "mirror": false
  },
  {
    "position": "Rest",
    "hand": "both",
    "angle": 0.0,
    "time": 1.3,
    "prep": 0.5,
    "mirror": false
  },
  {
    "position": "Move",
    "hand": "both",
    "angle": 40.0,
    "time": 1.3,
    "prep": 0.0,
    "mirror": false
  },
  {
    "position": "Rest",
    "hand": "both",
    "angle": 0.0,
    "time": 1.2,
    "prep": 0.4,
    "mirror": false
  },
  {
    "position": "Move",
    "hand": "right",
    "angle": 30.0,
    "time": 2.0,
    "prep": 0.0,
    "mirror": false
  },
  {
    "position": "Rest",
    "hand": "both",
    "angle": 0.0,
    "time": 1.5,
    "prep": 0.4,
    "mirror": false
  },
  {
    "position": "Move",
    "hand": "left",
    "angle": 25.0,
    "time": 1.0,
    "prep": 0.0,
    "mirror": false
  },
  {
    "position": "Rest",
    "hand": "both",
    "angle": 0.0,
    "time": 1.3,
    "prep": 0.4,
    "mirror": false
  },
  {
    "position": "Move",
    "hand": "right",
    "angle": 30.0,
    "time": 1.9,
    "prep": 0.0,
    "mirror": false
  },
  {
    "position": "Rest",
    "hand": "both",
    "angle": 0.0,
    "time": 1.7,
    "prep": 0.5,
    "mirror": false
  },
  {
    "position": "Move",
    "hand": "both",
    "angle": 40.0,
    "time": 1.8,
    "prep": 0.0,
    "mirror": false
  },
  {
    "position": "Rest",
    "hand": "both",
    "angle": 0.0,
    "time": 1.2,
    "prep": 0.3,
    "mirror": false
  },
  {
    "position": "Move",
    "hand": "left",
    "angle": 25.0,
    "time": 1.7,
    "prep": 0.0,
    "mirror": false
  },
  {
    "position": "Rest",
    "hand": "both",
    "angle": 0.0,
    "time": 1.7,
    "prep": 0.4,
    "mirror": false
  },
  {
    "position": "Move",
    "hand": "both",
    "angle": 35.0,
    "time": 1.5,
    "prep": 0.0,
    "mirror": false
  },
  {
    "position": "Rest",
    "hand": "both",
    "angle": 0.0,
    "time": 1.7,
    "prep": 0.3,
    "mirror": false
  },
  {
    "position": "Move",
    "hand": "left",
    "angle": 25.0,
    "time": 1.8,
    "prep": 0.0,
    "mirror": false
  },
  {
    "position": "Rest",
    "hand": "both",
    "angle": 0.0,
    "time": 1.2,
    "prep": 0.3,
    "mirror": false
  },
  {
    "position": "Move",
    "hand": "left",
    "angle": 20.0,
    "time": 1.6,
    "prep": 0.0,
    "mirror": false
  },
  {
    "position": "Rest",
    "hand": "both",
    "angle": 0.0,
    "time": 1.7,
    "prep": 0.3,
    "mirror": false
  },
  {
    "position": "Move",
    "hand": "left",
    "angle": 25.0,
    "time": 1.8,
    "prep": 0.0,
    "mirror": false
  },
  {
    "position": "Rest",
    "hand": "both",
    "angle": 0.0,
    "time": 2.0,
    "prep": 0.5,
    "mirror": false
  },
  {
    "position": "Move",
    "hand": "both",
    "angle": 40.0,
    "time": 1.7,
    "prep": 0.0,
    "mirror": false
  },
  {
    "position": "Rest",
    "hand": "both",
    "angle": 0.0,
    "time": 1.0,
    "prep": 0.3,
    "mirror": false
  },
  {
    "position": "Move",
    "hand": "left",
    "angle": 25.0,
    "time": 1.1,
    "prep": 0.0,
    "mirror": false
  },
  {
    "position": "Rest",
    "hand": "both",
    "angle": 0.0,
    "time": 1.9,
    "prep": 0.5,
    "mirror": false
  },
  {
    "position": "Move",
    "hand": "both",
    "angle": 40.0,
    "time": 1.0,
    "prep": 0.0,
    "mirror": false
  },
  {
    "position": "Rest",
    "hand": "both",
    "angle": 0.0,
    "time": 1.9,
    "prep": 0.4,
    "mirror": false
  },
  {
    "position": "Move",
    "hand": "left",
    "angle": 25.0,
    "time": 2.0,
    "prep": 0.0,
    "mirror": false
  },
  {
    "position": "Rest",
    "hand": "both",
    "angle": 0.0,
    "time": 1.6,
    "prep": 0.3,
    "mirror": false
  },
  {
    "position": "Move",
    "hand": "left",
    "angle": 20.0,
    "time": 1.6,
    "prep": 0.0,
    "mirror": false
  },
  {
    "position": "Rest",
    "hand": "both",
    "angle": 0.0,
    "time": 1.9,
    "prep": 0.5,
    "mirror": false
  },
  {
    "position": "Move",
    "hand": "both",
    "angle": 40.0,
    "time": 1.2,
    "prep": 0.0,
    "mirror": false
  },
  {
    "position": "Rest",
    "hand": "both",
    "angle": 0.0,
    "time": 1.6,
    "prep": 0.4,
    "mirror": false
  },
  {
    "position": "Move",
    "hand": "right",
    "angle": 30.0,
    "time": 1.9,
    "prep": 0.0,
    "mirror": false
  },
  {
    "position": "Rest",
    "hand": "both",
    "angle": 0.0,
    "time": 1.6,
    "prep": 0.5,
    "mirror": false
  },
  {
    "position": "Move",
    "hand": "both",
    "angle": 35.0,
    "time": 1.1,
    "prep": 0.0,
    "mirror": false
  },
  {
    "position": "Rest",
    "hand": "both",
    "angle": 0.0,
    "time": 1.6,
    "prep": 0.3,
    "mirror": false
  },
  {
    "position": "Move",
    "hand": "left",
    "angle": 20.0,
    "time": 1.1,
    "prep": 0.0,
    "mirror": false
  },
  {
    "position": "Rest",
    "hand": "both",
    "angle": 0.0,
    "time": 1.9,
    "prep": 0.4,
    "mirror": false
  },
  {
    "position": "Move",
    "hand": "right",
    "angle": 25.0,
    "time": 1.4,
    "prep": 0.0,
    "mirror": false
  },
  {
    "position": "Rest",
    "hand": "both",
    "angle": 0.0,
    "time": 1.8,
    "prep": 0.4,
    "mirror": false
  },
  {
    "position": "Move",
    "hand": "right",
    "angle": 30.0,
    "time": 1.7,
    "prep": 0.0,
    "mirror": false
  },
  {
    "position": "Rest",
    "hand": "both",
    "angle": 0.0,
    "time": 1.8,
    "prep": 0.3,
    "mirror": false
  },
  {
    "position": "Move",
    "hand": "left",
    "angle": 20.0,
    "time": 1.6,
    "prep": 0.0,
    "mirror": false
  },
  {
    "position": "Rest",
    "hand": "both",
    "angle": 0.0,
    "time": 1.5,
    "prep": 0.4,
    "mirror": false
  },
  {
    "position": "Move",
    "hand": "right",
    "angle": 35.0,
    "time": 1.6,
    "prep": 0.0,
    "mirror": false
  },
  {
    "position": "Rest",
    "hand": "both",
    "angle": 0.0,
    "time": 1.0,
    "prep": 0.4,
    "mirror": false
  },
  {
    "position": "Move",
    "hand": "right",
    "angle": 30.0,
    "time": 1.9,
    "prep": 0.0,
    "mirror": false
  },
  {
    "position": "Rest",
    "hand": "both",
    "angle": 0.0,
    "time": 1.4,
    "prep": 0.4,
    "mirror": false
  },
  {
    "position": "Move",
    "hand": "right",
    "angle": 30.0,
    "time": 1.9,
    "prep": 0.0,
    "mirror": false
  },
  {
    "position": "Rest",
    "hand": "both",
    "angle": 0.0,
    "time": 1.2,
    "prep": 0.4,
    "mirror": false
  },
  {
    "position": "Move",
    "hand": "both",
    "angle": 35.0,
    "time": 1.7,
    "prep": 0.0,
    "mirror": false
  },
  {
    "position": "Rest",
    "hand": "both",
    "angle": 0.0,
    "time": 1.1,
    "prep": 0.4,
    "mirror": false
  },
  {
    "position": "Move",
    "hand": "left",
    "angle": 25.0,
    "time": 2.0,
    "prep": 0.0,
    "mirror": false
  },
  {
    "position": "Rest",
    "hand": "both",
    "angle": 0.0,
    "time": 1.3,
    "prep": 0.4,
    "mirror": false
  },
  {
    "position": "Move",
    "hand": "both",
    "angle": 35.0,
    "time": 1.6,
    "prep": 0.0,
    "mirror": false
  },
  {
    "position": "Rest",
    "hand": "both",
    "angle": 0.0,
    "time": 1.2,
    "prep": 0.4,
    "mirror": false
  },
  {
    "position": "Move",
    "hand": "left",
    "angle": 25.0,
    "time": 1.1,
    "prep": 0.0,
    "mirror": false
  },
  {
    "position": "Rest",
    "hand": "both",
    "angle": 0.0,
    "time": 1.0,
    "prep": 0.3,
    "mirror": false
  },
  {
    "position": "Move",
    "hand": "left",
    "angle": 20.0,
    "time": 1.4,
    "prep": 0.0,
    "mirror": false
  },
  {
    "position": "Rest",
    "hand": "both",
    "angle": 0.0,
    "time": 1.1,
    "prep": 0.4,
    "mirror": false
  },
  {
    "position": "Move",
    "hand": "both",
    "angle": 35.0,
    "time": 1.3,
    "prep": 0.0,
    "mirror": false
  },
  {
    "position": "Rest",
    "hand": "both",
    "angle": 0.0,
    "time": 1.3,
    "prep": 0.4,
    "mirror": false
  },
  {
    "position": "Move",
    "hand": "right",
    "angle": 25.0,
    "time": 1.2,
    "prep": 0.0,
    "mirror": false
  },
  {
    "position": "Rest",
    "hand": "both",
    "angle": 0.0,
    "time": 1.9,
    "prep": 0.4,
    "mirror": false
  },
  {
    "position": "Move",
    "hand": "left",
    "angle": 25.0,
    "time": 1.1,
    "prep": 0.0,
    "mirror": false
  },
  {
    "position": "Rest",
    "hand": "both",
    "angle": 0.0,
    "time": 1.1,
    "prep": 0.5,
    "mirror": false
  },
  {
    "position": "Move",
    "hand": "both",
    "angle": 40.0,
    "time": 1.8,
    "prep": 0.0,
    "mirror": false
  },
  {
    "position": "Rest",
    "hand": "both",
    "angle": 0.0,
    "time": 1.9,
    "prep": 0.4,
    "mirror": false
  },
  {
    "position": "Move",
    "hand": "both",
    "angle": 35.0,
    "time": 1.6,
    "prep": 0.0,
    "mirror": false
  },
  {
    "position": "Rest",
    "hand": "both",
    "angle": 0.0,
    "time": 1.2,
    "prep": 0.3,
    "mirror": false
  },
  {
    "position": "Move",
    "hand": "left",
    "angle": 25.0,
    "time": 1.0,
    "prep": 0.0,
    "mirror": false
  },
  {
    "position": "Rest",
    "hand": "both",
    "angle": 0.0,
    "time": 1.7,
    "prep": 0.4,
    "mirror": false
  },
  {
    "position": "Move",
    "hand": "left",
    "angle": 25.0,
    "time": 1.4,
    "prep": 0.0,
    "mirror": false
  },
  {
    "position": "Rest",
    "hand": "both",
    "angle": 0.0,
    "time": 1.9,
    "prep": 0.4,
    "mirror": false
  },
  {
    "position": "Move",
    "hand": "left",
    "angle": 25.0,
    "time": 1.2,
    "prep": 0.0,
    "mirror": false
  },
  {
    "position": "Rest",
    "hand": "both",
    "angle": 0.0,
    "time": 1.9,
    "prep": 0.3,
    "mirror": false
  },
  {
    "position": "Move",
    "hand": "left",
    "angle": 25.0,
    "time": 1.4,
    "prep": 0.0,
    "mirror": false
  },
  {
    "position": "Rest",
    "hand": "both",
    "angle": 0.0,
    "time": 1.6,
    "prep": 0.5,
    "mirror": false
  },
  {
    "position": "Move",
    "hand": "both",
    "angle": 40.0,
    "time": 1.4,
    "prep": 0.0,
    "mirror": false
  },
  {
    "position": "Rest",
    "hand": "both",
    "angle": 0.0,
    "time": 1.0,
    "prep": 0.4,
    "mirror": false
  },
  {
    "position": "Move",
    "hand": "right",
    "angle": 30.0,
    "time": 1.1,
    "prep": 0.0,
    "mirror": false
  },
  {
    "position": "Rest",
    "hand": "both",
    "angle": 0.0,
    "time": 1.6,
    "prep": 0.3,
    "mirror": false
  },
  {
    "position": "Move",
    "hand": "left",
    "angle": 20.0,
    "time": 1.7,
    "prep": 0.0,
    "mirror": false
  },
  {
    "position": "Rest",
    "hand": "both",
    "angle": 0.0,
    "time": 1.4,
    "prep": 0.4,
    "mirror": false
  },
  {
    "position": "Move",
    "hand": "left",
    "angle": 25.0,
    "time": 1.2,
    "prep": 0.0,
    "mirror": false
  },
  {
    "position": "Rest",
    "hand": "both",
    "angle": 0.0,
    "time": 1.1,
    "prep": 0.5,
    "mirror": false
  },
  {
    "position": "Move",
    "hand": "both",
    "angle": 40.0,
    "time": 1.6,
    "prep": 0.0,
    "mirror": false
  },
  {
    "position": "Rest",
    "hand": "both",
    "angle": 0.0,
    "time": 1.6,
    "prep": 0.4,
    "mirror": false
  },
  {
    "position": "Move",
    "hand": "both",
    "angle": 35.0,
    "time": 1.0,
    "prep": 0.0,
    "mirror": false
  },
  {
    "position": "Rest",
    "hand": "both",
    "angle": 0.0,
    "time": 1.9,
    "prep": 0.5,
    "mirror": false
  },
  {
    "position": "Move",
    "hand": "both",
    "angle": 35.0,
    "time": 1.5,
    "prep": 0.0,
    "mirror": false
  },
  {
    "position": "Rest",
    "hand": "both",
    "angle": 0.0,
    "time": 1.1,
    "prep": 0.3,
    "mirror": false
  },
  {
    "position": "Move",
    "hand": "left",
    "angle": 25.0,
    "time": 1.5,
    "prep": 0.0,
    "mirror": false
  },
  {
    "position": "Rest",
    "hand": "both",
    "angle": 0.0,
    "time": 1.3,
    "prep": 0.4,
    "mirror": false
  },
  {
    "position": "Move",
    "hand": "both",
    "angle": 35.0,
    "time": 1.5,
    "prep": 0.0,
    "mirror": false
  },
  {
    "position": "Rest",
    "hand": "both",
    "angle": 0.0,
    "time": 1.4,
    "prep": 0.4,
    "mirror": false
  },
  {
    "position": "Move",
    "hand": "right",
    "angle": 35.0,
    "time": 1.6,
    "prep": 0.0,
    "mirror": false
  },
  {
    "position": "Rest",
    "hand": "both",
    "angle": 0.0,
    "time": 1.7,
    "prep": 0.4,
    "mirror": false
  },
  {
    "position": "Move",
    "hand": "right",
    "angle": 30.0,
    "time": 1.4,
    "prep": 0.0,
    "mirror": false
  },
  {
    "position": "Rest",
    "hand": "both",
    "angle": 0.0,
    "time": 1.5,
    "prep": 0.4,
    "mirror": false
  },
  {
    "position": "Move",
    "hand": "both",
    "angle": 35.0,
    "time": 1.2,
    "prep": 0.0,
    "mirror": false
  },
  {
    "position": "Rest",
    "hand": "both",
    "angle": 0.0,
    "time": 2.0,
    "prep": 0.5,
    "mirror": false
  },
  {
    "position": "Move",
    "hand": "both",
    "angle": 35.0,
    "time": 1.8,
    "prep": 0.0,
    "mirror": false
  },
  {
    "position": "Rest",
    "hand": "both",
    "angle": 0.0,
    "time": 1.7,
    "prep": 0.3,
    "mirror": false
  },
  {
    "position": "Move",
    "hand": "left",
    "angle": 20.0,
    "time": 1.1,
    "prep": 0.0,
    "mirror": false
  },
  {
    "position": "Rest",
    "hand": "both",
    "angle": 0.0,
    "time": 1.1,
    "prep": 0.4,
    "mirror": false
  },
  {
    "position": "Move",
    "hand": "right",
    "angle": 30.0,
    "time": 1.7,
    "prep": 0.0,
    "mirror": false
  },
  {
    "position": "Rest",
    "hand": "both",
    "angle": 0.0,
    "time": 1.0,
    "prep": 0.4,
    "mirror": false
  },
  {
    "position": "Move",
    "hand": "both",
    "angle": 35.0,
    "time": 1.0,
    "prep": 0.0,
    "mirror": false
  },
  {
    "position": "Rest",
    "hand": "both",
    "angle": 0.0,
    "time": 1.6,
    "prep": 0.5,
    "mirror": false
  },
  {
    "position": "Move",
    "hand": "both",
    "angle": 35.0,
    "time": 1.8,
    "prep": 0.0,
    "mirror": false
  },
  {
    "position": "Rest",
    "hand": "both",
    "angle": 0.0,
    "time": 1.5,
    "prep": 0.5,
    "mirror": false
  },
  {
    "position": "Move",
    "hand": "both",
    "angle": 40.0,
    "time": 1.7,
    "prep": 0.0,
    "mirror": false
  },
  {
    "position": "Rest",
    "hand": "both",
    "angle": 0.0,
    "time": 1.4,
    "prep": 0.4,
    "mirror": false
  },
  {
    "position": "Move",
    "hand": "both",
    "angle": 35.0,
    "time": 1.0,
    "prep": 0.0,
    "mirror": false
  },
  {
    "position": "Rest",
    "hand": "both",
    "angle": 0.0,
    "time": 1.7,
    "prep": 0.3,
    "mirror": false
  },
  {
    "position": "Move",
    "hand": "left",
    "angle": 20.0,
    "time": 1.7,
    "prep": 0.0,
    "mirror": false
  },
  {
    "position": "Rest",
    "hand": "both",
    "angle": 0.0,
    "time": 1.8,
    "prep": 0.3,
    "mirror": false
  },
  {
    "position": "Move",
    "hand": "left",
    "angle": 20.0,
    "time": 1.7,
    "prep": 0.0,
    "mirror": false
  },
  {
    "position": "Rest",
    "hand": "both",
    "angle": 0.0,
    "time": 2.0,
    "prep": 0.5,
    "mirror": false
  },
  {
    "position": "Move",
    "hand": "both",
    "angle": 40.0,
    "time": 1.5,
    "prep": 0.0,
    "mirror": false
  },
  {
    "position": "Rest",
    "hand": "both",
    "angle": 0.0,
    "time": 1.2,
    "prep": 0.3,
    "mirror": false
  },
  {
    "position": "Move",
    "hand": "left",
    "angle": 20.0,
    "time": 1.8,
    "prep": 0.0,
    "mirror": false
  },
  {
    "position": "Rest",
    "hand": "both",
    "angle": 0.0,
    "time": 1.7,
    "prep": 0.5,
    "mirror": false
  },
  {
    "position": "Move",
    "hand": "both",
    "angle": 40.0,
    "time": 1.7,
    "prep": 0.0,
    "mirror": false
  },
  {
    "position": "Rest",
    "hand": "both",
    "angle": 0.0,
    "time": 1.9,
    "prep": 0.5,
    "mirror": false
  },
  {
    "position": "Move",
    "hand": "both",
    "angle": 40.0,
    "time": 1.2,
    "prep": 0.0,
    "mirror": false
  },
  {
    "position": "Rest",
    "hand": "Both",
    "angle": 0.0,
    "time": 2.0,
    "prep": 0.0,
    "mirror": false
  }
]